EESchema Schematic File Version 5
EELAYER 43 0
EELAYER END
$Descr A4 11693 8268
encoding utf-8
Sheet 1 2
Title ""
Date ""
Rev ""
Comp ""
Comment1 ""
Comment2 ""
Comment3 ""
Comment4 ""
Comment5 ""
Comment6 ""
Comment7 ""
Comment8 ""
Comment9 ""
$EndDescr
$Sheet
S 3750 2550 1800 1650
U 640E4752
F0 "MCU0" 50
F1 "MCU0.sch" 50
$EndSheet
$EndSCHEMATC
